ContactName,EmailAddress,POAddressLine1,POAddressLine2,POCity,PORegion,POPostalCode,POCountry,InvoiceNumber,Reference,InvoiceDate,DueDate,Total,TaxTotal,InvoiceAmountDue,InventoryItemCode,Description,Quantity,Status
Invermay Primary,Diane.Williamson@education.tas.edu.au,35-43 Mayne St,,Invermay,TAS,7248,,191071,Renewal,28/10/19,15/11/19,200,18.18,200,MR300-400,Maths300  Renewal subscription for 201-400 student campusFor the period from 1/11/2019-1/11/2020,1,Overdue
Reservoir High School,trajkovic.zoran.z@edumail.vic.gov.au,855 Plenty Road,,RESERVOIR,VIC,3073,,191286,p/o 3374,6/11/19,21/11/19,462,42,462,M300-800,Maths300 First year subscription for 601-800 student campusFor the period from 15/11/2019 - 15/11/2020,1,Overdue
Our Lady of Lourdes Toowoomba,kathy.foreman@twb.catholic.edu.au,Toowoomba Catholic Schools73 Margare St,,Toowoomba,QLD,4350,,191276,Renewal,11/11/19,25/11/19,200,18.18,200,MR300-400,Maths300  Renewal subscription for 201-400 student campusFor the period from 1/1/2020-1/1/2021,1,Overdue
TRINITY GRAMMAR SCHOOL 2130,itorder@trinity.nsw.edu.au,119 Prospect Road,,SUMMER HILL,NSW,2130,,191269,551262,6/11/19,25/11/19,225,20.45,225,MR300-1600+,Maths300  Renewal subscription for 1600+ student campusFor the period from 1/12/2019-1/12/2020,1,Overdue
James Nash State High School,akahl14@eq.edu.au,109 Myall Street,,GYMPIE,QLD,4570,,191257,Renewal,11/11/19,25/11/19,220,20,220,MR300-1600,Maths300  Renewal subscription for 1201-1600 student campusFor the period from 15/12/2019 - 15/12/2020,1,Overdue
Girraween Public School,melissa.loughhead@det.nsw.edu.au,9 Bando Road,,Girraween,NSW,2145,AUSTRALIA,191246,Renewal,11/11/19,25/11/19,220,20,220,MR300-1600,Maths300  Renewal subscription for 1201-1600 student campusFor the period from 1/11/2019 - 1/11/2020,1,Overdue
John Paul College 3199,finance@jpc.vic.edu.au,McMahons Rd,,FRANKSTON,VIC,3199,AUSTRALIA,191238,Renewal,11/11/19,25/11/19,215,19.55,215,MR300-1200,Maths300  Renewal subscription for 801-1200 student campusFor the period from 15/12/2019 - 15/12/2020,1,Overdue
Central Coast Adventist School,jandrews@ccas.nsw.edu.au,12 Penrose Cresent,,Erina,NSW,2250,AUSTRALIA,191236,Renewal,11/11/19,25/11/19,215,19.55,215,MR300-1200,Maths300  Renewal subscription for 801-1200 student campusFor the period from 1/12/2019 - 1/12/2020,1,Overdue
Redcliffe State High School,mfry33@eq.edu.au,Cnr Klingner Rd & Oxley Ave,,REDCLIFFE,QLD,4020,AUSTRALIA,191233,Renewal,11/11/19,25/11/19,215,19.55,215,MR300-1200,Maths300  Renewal subscription for 801-1200 student campusFor the period from 1/12/2019 - 1/12/2020,1,Overdue
St Marys Primary School - Moruya,office.stmarysmoruya@cg.catholic.edu.au,Queen Street,,MORUYA,NSW,2537,,191128,Renewal,11/11/19,25/11/19,200,18.18,200,MR300-400,Maths300  Renewal subscription for 201-400 student campusFor the period from 1/1/2020-1/1/2021,1,Overdue
St Patrick's Primary Gympie,pgympie@bne.catholic.edu.au,18 - 26 Church Street,,Gympie,QLD,4570,,191127,Renewal,11/11/19,25/11/19,200,18.18,200,MR300-400,Maths300  Renewal subscription for 201-400 student campusFor the period from 1/1/2020-1/1/2021,1,Overdue
St Joseph's Primary School - 3644,info@sjcobram.catholic.edu.au,1-25 Broadway Street,,Cobram,VIC,3644,,191126,Renewal,11/11/19,25/11/19,200,18.18,200,MR300-400,Maths300  Renewal subscription for 201-400 student campusFor the period from 1/1/2020-1/1/2021,1,Overdue
Curran Public School,curran-p.school@det.nsw.edu.au,Melaleuca Drive,,Maquarie Fields,NSW,2564,,191125,Renewal,11/11/19,25/11/19,200,18.18,200,MR300-400,Maths300  Renewal subscription for 201-400 student campusFor the period from 1/1/2020-1/1/2021,1,Overdue
Tooradin Primary School,tooradin.ps@edumail.vic.gov.au,Bayview Road,,TOORADIN,VIC,251,,191124,Renewal,11/11/19,25/11/19,200,18.18,200,MR300-400,Maths300  Renewal subscription for 201-400 student campusFor the period from 1/1/2020-1/1/2021,1,Overdue
Holy Trinity Primary School,beulah.judbrettingham@cg.catholic.edu.au,18 Theodore St,,Curtin,ACT,2605,,191123,Renewal,29/10/19,25/11/19,200,18.18,200,MR300-400,Maths300  Renewal subscription for 201-400 student campusFor the period from 15/12/2019-15/12/2020,1,Overdue
Nykoping Gymnasium,susanna.nilsson@nykoping.se,Nykopings kommunFakturaskanningBox 22,Fakurascanning,NYKOPING,,611 22,SWEDEN,191100,Renewal,11/11/19,25/11/19,200,0,200,MR300-400,Maths300  Renewal subscription for 201-400 student campusFor the period from 1/12/2019-1/12/2020,1,Overdue
Huntly Primary School,payne.debra.j@edumail.vic.gov.au,Brunel St,,HUNTLY,VIC,3551,AUSTRALIA,191094,Renewal,11/11/19,25/11/19,200,18.18,200,MR300-400,Maths300  Renewal subscription for 201-400 student campusFor the period from 1/12/2019-1/12/2020,1,Overdue
Borroloola Community Educ Centre,admin.borrosch@ntschools.net,Lot 321 Robinson Rd,,BORROLOOLA,NT,854,AUSTRALIA,191064,Renewal,11/11/19,25/11/19,195,17.73,195,MR300-200,Maths300  Renewal subscription for 101-200 student campusFor the period from 15/1/2020-15/1/2021,1,Overdue
TUMBY BAY AREA SCHOOL,dl.0743.info@schools.sa.edu.au,West Terrace,,Tumbey Bay,SA,5605,AUSTRALIA,191063,Renewal,11/11/19,25/11/19,195,17.73,195,MR300-200,Maths300  Renewal subscription for 101-200 student campusFor the period from 1/1/2020-1/1/2021,1,Overdue
WEDDERBURN COLLEGE,wedderburn.p12@edumail.vic.gov.au,15-29 Hospital Street,,WEDDERBURN,VIC,3518,,191056,Renewal,11/11/19,25/11/19,195,17.73,195,MR300-200,Maths300  Renewal subscription for 101-200 student campusFor the period from 15/12/2019-15/12/2020,1,Overdue
Neerim District Secondary College,zakaria.fahad.m@edumail.vic.gov.au,Neerim East Road,Neerim East Road,NEERIM SOUTH,VIC,3831,,191052,Renewal,11/11/19,25/11/19,195,17.73,195,MR300-200,Maths300  Renewal subscription for 101-200 student campusFor the period from 15/12/2019-15/12/2020,1,Overdue
Badger Creek Primary School,hartley.susan.e1@edumail.vic.gov.au,139 Badger Creek Rd,,BADGER CREEK,VIC,3777,AUSTRALIA,191049,Renewal,11/11/19,25/11/19,195,17.73,195,MR300-200,Maths300  Renewal subscription for 101-200 student campusFor the period from 1/12/2019-1/12/2020,1,Overdue
Curlewis public school,curlewis-p.school@det.nsw.edu.au,44-68 Goran St,,Curlewis,NSW,2381,,191016,Renewal,11/11/19,25/11/19,95,8.64,95,MR300 -50,Maths300 Renewal subscription for 0-50 student campus. For the period from 1/1/2020 - 1/1/2021,1,Overdue
Ramco Primary School,dl.0372.info@schools.sa.edu.au,464 Ramco Road,,Ramco,SA,5322,,191011,Renewal,11/11/19,25/11/19,95,8.64,95,MR300 -50,Maths300 Renewal subscription for 0-50 student campus. For the period from 1/12/2019 - 1/12/2020,1,Overdue
Willaura Primary School,meehan.tammie.e@edumail.vic.gov.au,14 Warranooke St,,WILLAURA,VIC,3379,AUSTRALIA,191009,Renewal,11/11/19,25/11/19,95,8.64,95,MR300 -50,Maths300 Renewal subscription for 0-50 student campus. For the period from 1/12/2019 - 1/12/2020,1,Overdue
YIYILI ABORIGINAL COMMUNITY SCHOOL,principal@yiyilischool.wa.edu.au,Education Street,,HALLS CREEK,WA,6770,AUSTRALIA,191005,Renewal,11/11/19,25/11/19,95,8.64,95,MR300 -50,Maths300 Renewal subscription for 0-50 student campus. For the period from 1/12/2019 - 1/12/2020,1,Overdue
Presbyterian Ladies College - Croydon,dbalkizas@plc.nsw.edu.au,Boundary St,,CROYDON,NSW,2132,,191294,Maths300 Subscription renewal,12/11/19,27/11/19,225,20.45,225,MR300-1600+,Maths300 Renewal subscription for 1600+ student campus For the period from 15/12/2019 - 15/12/2020,1,Overdue
Forest Primary School 2603,ann.hayres@ed.act.edu.au,9 Hobart Ave,,Forrest,ACT,2603,,191316,p/o 190261,8/1/20,23/1/20,451,41,451,M300-600,Maths300 First year subscription for 401-600 student campusFor the period from 15/1/2019 - 15/1/2020,1,Paid
DE LA SALLE COLLEGE 3144,accounts@delasalle.vic.edu.au,1318 HIGH ST,,MALVERN,VIC,3144,,191308,p/o 10100,3/12/19,18/12/19,215,19.55,215,MR300-1200,Maths300  Renewal subscription for 801-1200 student campusFor the period from 15/12/2019 - 15/12/2020,1,Paid
CASTLE HILL HIGH SCHOOL,castlehill-h.school@det.nsw.edu.au,72 Castle St,,CASTLE HILL,NSW,2154,,191306,p/o 4003337306,3/12/19,18/12/19,495,45,495,M300-1601+,Maths300 First year subscription for 1601+ student campusFor the period from 15/12/2019 - 15/12/2020,1,Paid
St Laurence O'Toole Primary School,kholian@stlleongatha.catholic.edu.au,33-35 Ogilvy St,,Leongatha,VIC,3953,,191300,new maths300,29/11/19,14/12/19,232,21.09,232,M300-100,Maths300 First year subscription for 51-100 student campusFor the period from 1/12/2019 - 1/12/2020,1,Paid
Morwell Central Primary School,obryan.ann.p@edumail.vic.gov.au,47-87 McDonalds Street,,Morwell,NSW,3840,,191156,Renewal,11/11/19,25/11/19,200,18.18,200,MR300-400,Maths300  Renewal subscription for 201-400 student campusFor the period from 1/12/2019 - 1/12/2020,1,Paid
Mumbulla School for Rudolf Stener education,eduadmin@mumbullaschool.com.au,37 Bega Street,,Bega,NSW,2550,,191039,Renewal,28/10/19,15/11/19,195,17.73,195,MR300-200,Maths300  Renewal subscription for 101-200 student campusFor the period from 15/11/2019-15/11/2020,1,Paid
Golden Grove High School,melissa.ruciack554@schools.sa.edu.au,1 Adey Place,,Golden Grove,SA,5125,AUSTRALIA,191263,Renewal,6/1/20,21/1/20,220,20,220,MR300-1600,Maths300  Renewal subscription for 1201-1600 student campusFor the period from 1/1/2020 - 1/1/2021,1,Awaiting Payment
Preston North East Primary School,gook.john-mark.m@edumail.vic.gov.au,93 Tyler St,,PRESTON,VIC,3072,AUSTRALIA,191093,Renewal,6/1/20,21/1/20,200,18.18,200,MR300-400,Maths300  Renewal subscription for 201-400 student campusFor the period from 1/12/2019-1/12/2020,1,Awaiting Payment
Stamford American International School,ryan.fern@sais.edu.sg,1 Woodleigh Lane,,SINGAPORE,Singapore,357684,SGP,191317,RENEWAL,8/1/20,23/1/20,225,0,225,MR300-1601,Maths300 Renewal subscription for 1601+ student campus. For the period from 15/1/2019 - 15/1/2020,1,Awaiting Payment
Caulfield Junior School,barclay.megan.m@edumail.vic.gov.au,186 Balaclaua Rd,,Caulfield North,VIC,3161,,191320,p/o 6964,13/1/20,28/1/20,451,41,451,M300-600,Maths300 First year subscription for 401-600 student campusFor the period from 15/1/2020 - 15/1/2021,1,Awaiting Payment